…
city_results = homicide_data |>
  group_by(city_state) |>
  nest() |>
  mutate(
    models = map(data, ~ glm(resolved ~ victim_age + victim_sex + victim_race,
                             data = .x, family = "binomial")),
    results = map(models, ~ broom::tidy(.x, exponentiate = TRUE, conf.int = TRUE))
  )|>
  unnest(results)|>
  select(-data,-models)|>
  filter(term == "victim_sexMale")  
city_results
```

    ## # A tibble: 47 × 8
    ## # Groups:   city_state [47]
    ##    city_state     term  estimate std.error statistic  p.value conf.low conf.high
    ##    <chr>          <chr>    <dbl>     <dbl>     <dbl>    <dbl>    <dbl>     <dbl>
    ##  1 Albuquerque, … vict…    1.73      0.386  1.43     1.54e- 1    0.808     3.70 
    ##  2 Atlanta, GA    vict…    1.00      0.194  0.000397 1.00e+ 0    0.680     1.46 
    ##  3 Baltimore, MD  vict…    0.426     0.138 -6.18     6.26e-10    0.324     0.558
    ##  4 Baton Rouge, … vict…    0.381     0.306 -3.15     1.65e- 3    0.204     0.684
    ##  5 Birmingham, AL vict…    0.873     0.212 -0.641    5.21e- 1    0.573     1.32 
    ##  6 Boston, MA     vict…    0.672     0.326 -1.22     2.22e- 1    0.352     1.27 
    ##  7 Buffalo, NY    vict…    0.522     0.299 -2.17     2.98e- 2    0.289     0.939
    ##  8 Charlotte, NC  vict…    0.884     0.236 -0.524    6.00e- 1    0.551     1.39 
    ##  9 Chicago, IL    vict…    0.410     0.102 -8.77     1.86e-18    0.336     0.501
    ## 10 Cincinnati, OH vict…    0.400     0.269 -3.41     6.49e- 4    0.231     0.667
    ## # ℹ 37 more rows
…
